^C:\USERS\MARK\DESKTOP\DEBUGGING\ANIMAL3D-SDK-2020-01-DEBUGGING\MEMORY MANAGEMENT PLAYGROUND\PROJECT\VISUALSTUDIO\_SLN\MEMORYMANAGEMENTPLAYGROUND\TESTINGPLAYGROUND\DEBUG\SOURCE.OBJ
C:\USERS\MARK\DESKTOP\DEBUGGING\ANIMAL3D-SDK-2020-01-DEBUGGING\MEMORY MANAGEMENT PLAYGROUND\PROJECT\VISUALSTUDIO\_SLN\MEMORYMANAGEMENTPLAYGROUND\DEBUG\TESTINGPLAYGROUND.ILK
C:\USERS\MARK\DESKTOP\DEBUGGING\ANIMAL3D-SDK-2020-01-DEBUGGING\MEMORY MANAGEMENT PLAYGROUND\PROJECT\VISUALSTUDIO\_SLN\MEMORYMANAGEMENTPLAYGROUND\DEBUG\TESTINGPLAYGROUND.EXE
C:\USERS\MARK\DESKTOP\DEBUGGING\ANIMAL3D-SDK-2020-01-DEBUGGING\MEMORY MANAGEMENT PLAYGROUND\PROJECT\VISUALSTUDIO\_SLN\MEMORYMANAGEMENTPLAYGROUND\DEBUG\TESTINGPLAYGROUND.PDB
